The One Piece: Dataset
…
>>>>>>> 4f5ada796559ebe9d3d3a38da1233f63c34f35ec

Episodes

Why look at episodes?

As mentioned One Piece has been releasing since 1999

At the moment of this presentation being made it has 1157 episodes, with many more manga chapters

Along with the episodes there is arcs to the show

## # A tibble: 1,156 × 24
##       id title          description number chapter release_date arc.id arc.title
##    <int> <chr>          <chr>       <chr>  <chr>   <date>        <int> <chr>    
##  1     1 I'm Luffy! Th… "Sailors o… n°1    Chap 2  1999-10-20        1 Arc Roma…
##  2     2 The great swo… "Luffy app… n°2    Chap 3… 1999-11-17        1 Arc Roma…
##  3     3 Morgan vs Luf… "Thanks to… n°3    Chap 5… 1999-11-24        1 Arc Roma…
##  4     4 Luffy's past!… "A young w… n°4    Chap 1… 1999-12-15        2 Arc Vill…
##  5     5 Frightful mys… "First mee… n°5    Chap 8… 1999-12-15        2 Arc Vill…
##  6     6 A deserted si… "Having be… n°6    Chap 1… 1999-12-29        2 Arc Vill…
##  7     7 Archarnate co… "Luffy and… n°7    Chap 1… 1999-12-29        2 Arc Vill…
##  8     8 Who will emer… "Part of B… n°8    Chap 1… 1999-12-29        2 Arc Vill…
##  9     9 The Lying Vig… "Luffy, Zo… n°9    Chap 2… 2000-01-12        3 Arc Vill…
## 10    10 A strangest o… "All the f… n°10   Chap 2… 2000-01-19        3 Arc Vill…
## # ℹ 1,146 more rows
## # ℹ 16 more variables: arc.description <chr>, arc.saga.id <int>,
## #   arc.saga.title <chr>, arc.saga.saga_number <chr>,
## #   arc.saga.saga_chapitre <chr>, arc.saga.saga_volume <chr>,
## #   arc.saga.saga_episode <chr>, saga.id <int>, saga.title <chr>,
## #   saga.saga_number <chr>, saga.saga_chapitre <chr>, saga.saga_volume <chr>,
## #   saga.saga_episode <chr>, year <dbl>, month <ord>, decade <dbl>
…
